TEXT_inf.

MAT:		LM
MAP:		B
TRM:
Ndl:			
Ntr:		
Nls:		02
REG:		G	


SPEAKERS_inf.

INp1:		J. P., F, 22, Genova


RECORDING_inf.

TYP:		DAT
LOC:		Genova/UniversitÓ
DAT:		13/03/01
DUR:		0.25,113
CON:	


TRANSCRIPTION_inf.

DAT:		16/05/01		
CMT:		
Nst:		18


limoni


frigorifero


gatto


freccia


treno


sedia


pipa


barca


forchetta


bar


mano


cuore


cuore rosso


rosso


giallo


cuore giallo


gelato


cono
