p1G#1- 0:00.0
p2F#2- 0:09.0-0:09.6
p1G#3- 0:09.6-0:16.7
p2F#4- 0:17.1-0:18.1
p1G#5- 0:18.0-0:18.6
p2F#6- 0:18.6-00:25.8
p1G#7- 0:25.4-00:27.2
p2F#8- 0:26.0-00:28.1
p1G#9- 0:27.5-00:28.0
p2F#10- 0:28.2-00:28.6
p1G#11- 0:28.5-00:32.4
p2F#12- 0:32.2-00:33.0
p1G#13- 0:33.1-0:38.2
p2F#14- 0:39.0-0:39.6
p1G#15- 0:39.6-0:45.7
p2F#16-0:45.9-0:48.6
p1G#17-0:48.6-0:49.9
p2F#18- 00:49.7-0:51.1
p1G#19- 0:50.9- 0:52.6
p2F#20- 0:52.8-0:54.8
p1G#21- 0:53.0-0:56.6
p2F#22- 0:56.6-1:07.8
p1G#23- 1:07.1-1:08.9
p2F#24- 1:07.8-1:09.1
p1G#25- 1:09.2-1:14.0
p2F#26- 1:14.8-1:15.5
p1G#27- 1:15.5-1:22.0
p2F#28- 1:21.4-1:22.1
p1G#29- 1:22.0-1:27.0
p2F#30- 1:27.8-1:32.1
p1G#31- 1:31.0-1:33.0
p2F#32- 1:33.5-1:34.2
p1G#33- 1:33.0-1:40.0
p2F#34- 1:43.0-1:45.4
p1G#35- 1:46.5-1:48.7
p2F#36- 1:49.2-1:50.9
p1G#37- 1:51.0-1:54.0
p2F#38- 1:57.2-2:04.5
p1#G39- 2:04.0-2:05.0
p2F#40- 2:05.1-2:07.2
p1G#41- 2:07.1-2:09.2
p2F#42- 2:08.6-2:11.8
p1G#43- 2:11.8-2:15.6
p2F#44- 2:14.8-2:17.6
p1G#45- 2:17.4-2:17.9
p2F#46- 2:18.1-2:19.9
p1G#47- 2:19.9-2:24.5
p2F#48- 2:24.5-2:25.6
p1G#49-2:53.3-2:26.6
p2F#50- 2:27.2-2:31.0
p1G#51- 2:30.3-2:33.2
p2F#52- 2:33.3-2:33.8
p1G#53- 2:34.1-2:35.9
p2F#54- 2:36.6-2:38.9
p1G#55- 2:37.1-2:40.0
p2F#56- 2:40.1-2:40.7
p1G#57- 2:40.7-2:43.8
p2F#58- 2:43.9-2:44.4
p1G#59- 2:44.7-2:45.6
p2F#60- 2:45.7-2:46.1
p1G#61- 2:46.1-2:48.5
p2F#62- 2:48.6-2:52.7
p1G#63- 2:52.7-2:53.1
p2F#64- 2:52.8-2:54.9
p1G#65-2:55.3-3:00.4
p2F#66- 2:58.5-3:02.1
p1G#67- 3:02.1-3:02.5
p2F#68- 3:02.5-3:04.8
p1G#69- 3:05.1-3:09.7
p2F#70-3:07.7-3:10.0
p1G#71- 3:10.0-3:16.0
p2F#72- 3:19.1-3:19.6
p1G#73- 3:16.6-3:18.8
p2F#74- 3:19.1-3:19.6
p1G#75- 3:19.6-3:22.4
p2F#76- 3:22.6-3:25.5
p1G#77- 3:25.6-3:27.3
p2F#78- 3:27.5-3:29.0
p1G#79- 3:29.2-3:34.5
p2F#80- 3:34.7-3:38.4
p1G#81- 3:38.1-3:39.4
p2F#82-3:38.4-3:44.1
p1G#83- 3:41.0-3:46.5 
p2F#84- 3.45.8-3:50.2
p1G#85- 3:46.5-3:53.5
p2F#86- 3:53.1-3:54.5
p1G#87- 3:53.4-3:55.7
p2F#88- 3:54.9-4:00.0
p1G#89- 3:55.6-4:03.4
p2F#90- 4:02.6-4:06.8
p1G#91- 4:04.7-4:07.0
p2F#92- 4:06.8-4:07.7
p1G#93- 4:07.2-4:16.1
p2F#94- 4:16.2-4:20.9
p1G#95- 4:20.9-4:22.5
p2F#96- 4:22.1-4:22.6
p1G#97- 4:22.6-4:26.5
p2F#98- 4:25.6-4:29.0
p1G#99- 4:28.9-4:29.6
p2F#100- 4:29.6-4:32.0
p1G#101- 4:32.1-4:35.6
p2F#102- 4:33.3-4:37.3
p1G#103- 4:36.8-4:39.2
p2F#104- 4:39.2-4:43.1
p1G#105- 4:43.2-4:46.0
p2F#106- 4:45.9-4:46.4
p1G#107- 4:45.3-4:50.8
p2F#108- 4:48.1-4:55.6
p1G#109- 4:45.2-4:57.8
p2F#110- 4:58.6-4:59.5
p1G#111- 4:59.5-5:59.8
p2F#112- 5:00.0-5:04.0
p1G#113- 5:07.0-5:06.0
p2F#114-5:06.2-5:10.9
p1G#115- 5:11.1-5:11.8
p2F#116- 5:11.8-5:12.7
p1G#117- 5:12.6-5:12.9
p2F#118- 5:13.1-5:13.5
p1G#119- 5:13.9-5:15.1
p2F#120- 5:15.6-5:22.8
p1G#121- 5:20.5-5:23.4
p2F#122- 5:23.2-5:24.1
p1G#123- 5:23.6-5:24.8
p2F#124- 5:24.8-5:26.0
p1G#125- 5:26.0-5:26.6
p2F#126- 5:26.4-5:29.0
p1G#127- 5:28.9-5:29.3
p2F#128- 5:29.8-5:31.0
p1G#129- 5:33.0-5:35.3
p2F#130- 5:36.3-5:37.1
p1G#131- 5:37.2-5:38.0
p2F#132- 5:38.9-5:39.8
p1G#133- 5:40.0-5:41.3
p2F#134- 5:41.9-5:45.9
p1G#135- 5:46.1-5:48.6
p2F#136- 5:48.7-5:52.9
p1G#137- 5:52.8-6:00.9
p2F#138- 6:00.4-6:00.7
p1G#139- 6:00.9-6:02.0
p2F#140- 6:02.0-6:02.5
p1G#141- 6:02.7-6:12.1
p2F#142- 6:13.0-6:14.3
p1G#143- 6:14.2-6:21.1
p2F#144- 6:21.2-6:23.3
p1G#145 6:22.285 - 6:25.838
p2F#146 6:26.187 - 6:27.572
p1G#147 6:27.541 - 6:27.914
p2F#148 6:29.003 - 6:29.821
p1G#149 6:29.859 - 6:32.100
p2F#150 6:32.198 - 6:34.034
p1G#151 6:34.176 - 6:36.044
p2F#152 6:35.232 - 6:47.020
p1G#153 6:47.082 - 6:50.343
p2F#154 6:50.495 - 6:50.941
p1G#155 6:50.977 - 6:51.298
p2G#156 6:52.088 - 7:06.491
p1F#157 7:07.595 - 7:10.736
p2G#158 7:10.496 - 7:13.813
p1F#159 7:13.813 - 7:14.253
p2G#160 7:14.196 - 7:18.237
p1F#161 7:18.853 - 7:19.697
p2G#162 7:19.495 - 7:20.060
p1F#163 7:20.443 - 7:20.827
p2G#164 7:20.569 - 7:23.694
p1F#165 7:23.899 - 7:24.282
p2G#166 7:24.393 - 7:27.712
p1F#167 7:26.009 - 7:28.196
p2G#168 7:27.860 - 7:30.069
p1F#169 7:29.370 - 7.30.902
p2G#170 7:30.396 - 7:39.441
p1F#171 7:39.718 - 7:40.047
p2G#172 7:39.948 - 7:42.377
p1F#173 7:42.349 - 7:42.820
p2G#174 7:42.728 - 7:46.630
p1F#175 7:46.778 - 7:49.072
p2G#176 7:48.999 - 7:51.723
p1F#177 7:51.204 - 7:52.711
p2G#178 7:52.783 - 7:53.281
p1F#179 7:53.254 - 7:54.375
p2G#180 7:54.973 - 7:56.705
p1F#181 7:56.903 - 7:57.903
p2G#182 7:57.322 - 8:03.416
p1F#183 8:03.499 - 8:04.051
p2G#184 8:04.396 - 8:05.569
p1F#185 8:06.153 - 8.06.537
p2G#186 8:06.401 - 8:11.599
p1F#187 8:09.611 - 8:12.490
p2G#188 8:12.362 - 8:21.152
p1F#189 8:21.193 - 8:21.658
p2G#190 8:22.127 - 8:32.207
p1F#191 8:32.222 - 8:32.691
p2G#192 8:33.050 - 8:37.617
p1F#193 8:37.633 - 8:38.174
p2G#194 8:37.668 - 8:38.814
p1F#195 8:38.915 - 8:40.406
p2G#196 8:40.339 - 8:40.807
p1F#197 8:40.631 - 8:44.251
p2G#198 8:44.302 - 8:44.932
p1F#199 8:44.567 - 8:46.630
p2G#200 8:45.556 - 8:49.736
p1F#201 8:47.634 - 8.49.925
p2G#202 8:49.814 - 8:52.345
p1F#203 8:52.302 - 8:55.968
p2G#204 8:53.183 - 9:00.008
p1F#205 8:59.707 - 9:01.361
p2G#206 9.01.258 - 9:03.169
p1F#207 9:03.130 - 9:04.851
p2G#208 9:03.884 - 9:08.999
p1F#209 9.07.640 - 9:09.001
p2G#210 9:09.020 - 9.09.811
p1F#211 9:09.024 - 9.12.099
p2G#212 9:11.551 - 9:12.302
p1F#213 9:12.509 - 9:13.294
p2G#214 9:13.125 - 9:13.467
p1F#215 9:13.530 - 9.15.703
p2G#216 9:15.491 - 9.24.405
p1F#217 9:24.692 - 9:25.279
p2G#218 9.25.095 - 9:32.951
p1F#219 9:33.832 - 9:35.644
p2G#220 9:38.001 - 9:39.845
p1F#221 9:39.447 - 9:41.186
p2G#222 9:41.061 - 9:44.287
p1F#223 9:42.349 - 9:44.989
p2G#224 9:45.256 - 9:50.436
p1F#225 9.49.871 - 9.52.668
p2G#226 9:52.081 - 9:54.218
p1F#227 9:53.757 - 9:54.837
p2G#228 9.54.605 - 9:55.209
p1F#229 9:55.085 - 9:55.745
p2G#230 9:55.990 - 10:00.035
p1F#231 9:58.816 - 10.00.383
p2G#232 10:00.787 - 10:05.503
p1F#233 10:05.892 - 10:09.868
p2G#234 10.09:180 - 10:09.892
p1F#235 10.10.187 - 10:11.855
p2G#236 10.11.800 - 10:13.792
p1F#237 10:13.681 - 10:14.630
p2G#238 10.13.997 - 10:16.989
p1F#239 10.17.089 - 10:17.722
p2G#240 10:17.999 - 10:23.192
p1F#241 10.22.612 - 10.24.572
p2G#242 10.24.002 - 10:28.253 
p1F#243 10:28.245 - 10:28.689
p2G#244 10:28.859 - 10:35.928
p1F#245 10:35.912 - 10:37.445
p2G#246 10:37.104 - 10:38.264
p1F#247 10:38.261 - 10.40.508
p2G#248 10:40.080 - 10:43.232
p1F#249 10:43.177 - 10:43.621
p2G#250 10:43.233 - 10:47.333
p1F#251 10:47.406 - 10:50.999
p2G#252 10:50.313 - 10:58.375
p1F#253 10:58.581 - 11:08.433
p2G#254 11:08.639 - 11.12.442
p1F#255 11:09.999 - 11:17.809
p2G#256 11:17.596 - 11:18.158
p1F#257 11:18.191 - 11:19.829
p2G#258 11:20.101 - 11:22.197
p1F#259 11:21.859 - 11:29.004
G#260 11:28.615 - 11:35.315
p1F#261 11:35.285 - 11:41.191
p2G#262 11:42.458 - 11:43.974
