LFp1B04F-tempor


LFp1B04F_#1     da 00:01.000 a 00:03.122   
LFp1B04F_#2     da 00:05.122 a 00:07.918
LFp1B04F_#3     da 00:09.918 a 00:11.833
LFp1B04F_#4     da 00:13.833 a 00:16.666
LFp1B04F_#5     da 00:18.666 a 00:21.768
LFp1B04F_#6     da 00:23.768 a 00:26.601
LFp1B04F_#7     da 00:28.601 a 00:31.312
LFp1B04F_#8     da 00:33.312 a 00:36.738
LFp1B04F_#9     da 00:38.768 a 00:42.778
LFp1B04F_#10    da 00:44.778 a 00:48.281
LFp1B04F_#11    da 00:50.281 a 00:55.858
LFp1B04F_#12    da 00:57.858 a 01:02.960  
LFp1B04F_#13    da 01:04.960 a 01:10.976 
LFp1B04F_#14    da 01:12.976 a 01:18:741
LFp1B04F_#15    da 01:20.741 a 01:28.154
LFp1B04F_#16    da 01:30.154 a 01:35.626 
LFp1B04F_#17    da 01:37.626 a 01:42.025
LFp1B04F_#18    da 01:44.025 a 01:51.397
LFp1B04F_#19    da 01:53.797 a 02:07.744
LFp1B04F_#20    da 02:09.744 a 02:26.542

LFp1B04F        02:27.543
