p0#1:  00:00.663 - 00:08.008

p0#2:  00:10.939 - 00:12.278

p0#3:  00:15.899 - 00:23.160
  
p0#4:  00:25.466 - 00:32.702

p0#5:  00:33.646 - 00:40.063

p0#6:  00:40.143 - 00:45.627

p0#7:  00:47.477 - 00:57.897

p0#8:  01:01.684 - 01:10.101

p0#9:  01:13.247 - 01:19.598