TEXT_inf.

MAT:           LM
MAP:           B
TRM:
Ndl:           
Ntr:
Nls:           04
REG:           C


SPEAKERS_inf.

INp2:          S. D., F, 19, Cagliari


RECORDING_inf.

TYP:           DAT
LOC:           Cagliari/UniversitÓ
DAT:           23/10/01
DUR:           0.26,524
CON:           buone


TRANSCRIPTION_inf.

DAT:           02/02/02
CMT:
Nst:           18


limoni


frigorifero


gatto


freccia


treno


sedia


pipa


barca


forchetta


bar


mano


cuore


cuore rosso


rosso


giallo


cuore giallo


gelato 


cono
