RDit_05H
P0#1:  00:00.000 - 00:03.052
P0#2:  00:02.628 - 00:08.998
P0#3:  00:08.707 - 00:15.298
P0#4:  00:15.276 - 00:22.105
P0#5:  00:22.112 - 00:26.987
P0#6:  00:26.568 - 00:31.437
P0#7:  00:31.019 - 00:36.312
P0#8:  00:35.747 - 00:47.995
P0#9:  00:47.489 - 00:52.030
P0#10:  00:51.648 - 00:58.333
P0#11:  00:57.964 - 01:02.482
P0#12:  01:02.479 - 01:10.002
P0#13:  01:09.525 - 01:13.411
P0#14:  01:13.091 - 01:21.927
P0#15:  01:21.522 - 01:25.261
