G#1:  00:01.457 - 00:02.498
F#2:  00:02.392 - 00:03.351
G#3:  00:04.842 - 00:13.553
F#4:  00:13.312 - 00:13.913
G#5:  00:13.600 - 00:13.851
F#6:  00:14.011 - 00:14.342
G#7:  00:14.140 - 00:16.592
F#8:  00:16.449 - 00:17.342
G#9:  00:16.700 - 00:19.201
F#10:  00:19.087 - 00:23.436
G#11:  00:23.271 - 00:24.603
F#12:  00:23.929 - 00:24.849
G#13:  00:25.212 - 00:27.818
F#14:  00:27.488 - 00:28.730
G#15:  00:28.103 - 00:28.912
F#16:  00:29.629 - 00:32.233
G#17:  00:31.600 - 00:33.874
F#18:  00:33.812 - 00:35.205
G#19:  00:34.504 - 00:35.795
F#20:  00:35.750 - 00:39.520
G#21:  00:36.106 - 00:42.206
F#22:  00:42.619 - 00:43.960
G#23:  00:43.484 - 00:47.687
F#24:  00:47.677 - 00:53.206
G#25:  00:51.585 - 00:54.486
F#26:  00:54.452 - 00:55.912
G#27:  00:54.781 - 01:00.869
F#28:  01.00.308 - 01:00:763
G#29:  01.00.852 - 01:09.005
F#30:  01:07.895 - 01:09.598
G#31:  01:10.465 - 01:11.192
F#32:  01:10.501 - 01:11.808
G#33:  01:12.207 - 01.15.951
F#34:  01:17.053 - 01:19.032
G#35:  01:19.016 - 01:19.918
F#36:  01:19.637 - 01:20.229
G#37:  01:20.188 - 01:29.854
F#38:  01:29.989 - 01:30.287
G#39:  01:30.266 - 01:35.427
F#40:  01:35.168 - 01:38.501
G#41:  01:38.211 - 01:43.502
F#42:  01:35.451 - 01:39.820
G#43:  01:45.727 - 01:46.488
F#44:  01:47.643 - 01:52.021
G#45:  01:50.322 - 01:56.568
F#46:  01:53.630 - 01:58.709
G#47:  01.58.345 - 02:00.843
F#48:  02:00.028 - 02:06.682
G#49:  02:05.105 - 02:09.383
F#50:  02:09.166 - 02:12.628
G#51:  02:13.106 - 02:14.236
F#52:  02:13.775 - 02:16.892
G#53:  02:17.226 - 02:18.782
F#54:  02:18.362 - 02:22.315
G#55:  02:20.486 - 02:25.650
F#56:  02:25.171 - 02:25.574
G#57:  02:26.095 - 02.28.261
F#58:  02:28.135 - 02.30.102
G#59:  02:29.389 - 02.34.176
F#60:  02:33.893 - 02:34.563
G#61:  02:37.496 - 02.38.184
F#62:  02:38.388 - 02:38.732
G#63:  02:39.484 - 02:40.775
F#64:  02:40.334 - 02:42.677
G#65:  02:42.160 - 02:44.444
F#66:  02:44.558 - 02:45.516
G#67:  02:43.088 - 02:47.028
F#68:  02:49.578 - 02:49.967
G#69:  02:50.422 - 02:53.845
F#70:  02:54.519 - 02:55.105
G#71:  02:56.326 - 02:56.628
F#72:  02:56.340 - 03:00.684
G#73:  02:57.976 - 03:03.506
F#74:  03:01.506 - 03:03.995
G#75:  03:02.868 - 03:03.305
F#76:  03:05.370 - 03:10.499
G#77:  03:06.378 - 03:17.126
F#78:  03:16.501 - 03:21.339
G#79:  03:20.508 - 03:25.529
F#80:  03:21.798 - 03:27.986
G#81:  03:27.324 - 03:29.048
F#82:  03:29.371 - 03:30.618
G#83:  03:30.541 - 03:34.225
F#84:  03:34.701 - 03:35.858
G#85:  03:36.074 - 03:37.859
F#86:  03:37.243 - 03:38.536
G#87:  03:39.636 - 03:41.099
F#88:  03:40.498 - 03:41.345 
G#89:  03:41.530 - 03:43.438
F#90:  03:42.730 - 03:43.946
G#91:  03:43.995 - 03:46.995
F#92:  03:47.336 - 03:47.716
G#93:  03:48.045 - 03:48.927
F#94:  03:48.850 - 03:49.573
G#95:  03:49.510 - 03:49.854
F#96:  03:49.940 - 03:52.275
G#97:  03:51.594 - 03:53.227
F#98:  03:52.795 - 03:53.811
G#99:  03:53.946 - 03:55.596
F#100:  03:55.612 -03:55.869
G#101:  03:56.438 - 03:56.902
F#102:  03:57.719 - 03:58.394
G#103:  03:58.107 - 04:00.471
F#104:  03:59.369 - 04:03.271
G#105:  04:03.379 - 04:03.841
F#106:  04.03.700 - 04:04.347
G#107:  04.04.555 - 04:10.492
F#108:  04:10.772 - 04:12.010
G#109:  04:11.484 - 04:14.494
F#110:  04:14.091 - 04:14.779
G#111:  04:14.738 - 04:23.511
F#112:  04:23.511 - 04:25.840
G#113:  04:26.238 - 04:30.208
F#114:  04:27.964 - 04:30.353
G#115:  04:30.502 - 04:33.238
F#116:  04:32.858 - 04:33.322
G#117:  04:33.571 - 04:41.517
F#118:  04:42.124 - 04:44.345
G#119:  04:44.303 - 04:45.533
F#120:  04:44.965 - 04:48.008
G#121:  04:47.500 - 04:49.753
F#122:  04:48.370 - 04:54.142
G#123:  04:51.702 - 04:56.082
F#124:  04:55.740 - 04:57.474
G#125:  04.57.095 - 05:01.097
F#126:  05.02.836 - 05.04.084
G#127:  05:04.167 - 05:05.784
F#128:  05:05.325 - 05:06.070
G#129:  05:06.121 - 05:10.240
F#130:  05:10.162 - 05:10.471
G#131:  05:11.121 - 05:18.471
F#132:  05:15.932 - 05:19.559
G#133:  05:19.440 - 05:21.306
F#134:  05:19.850 - 05:22.944
G#135:  05:22.939 - 05:25.210
F#136:  05:25.765 - 05:27.253
G#137:  05:27.792 - 05:30.016
F#138:  05:30.117 - 05:35.177
G#139:  05:31.769 - 05:35.908
F#140:  05:36.209 - 05:38.510
G#141:  05:37.210 - 05:39.576
F#142:  05:38.780 - 05:41.640
G#143:  05:41.729 - 05:42.820
F#144:  05:42.750 - 05:44.449
G#145:  05:44.513 - 05:51.171
F#146:  05:50.363 - 05:58.798
G#147:  05:57.488 - 06:00.142
F#148:  05:59.522 - 06:02.229
G#149:  06:01.408 - 06:10.020
F#150:  06:05.578 - 06:12.502
G#151:  06:12.585 - 06:17.499
F#152:  06.16.091 - 06:18.378
G#153:  06:18.285 - 06:19.830
F#154:  06:18.500 - 06:19.520
G#155:  06:19.690 - 06:20.200
F#156:  06:20:200 - 06:20.696
G#157:  06.20.791 - 06:22.711
F#158:  06:23.830 - 06:26.136
G#159:  06:24.929 - 06:29.688
F#160:  06:28.957 - 06:30.675
G#161:  06:30.596 - 06:32.509
F#162:  06:32.199 - 06:32.582
G#163:  06:32.743 - 06:37.285
F#164:  06.38.987 - 06:42.057
G#165:  06:39.552 - 06:46.376
F#166:  06:46.497 - 06:47.401
G#167:  06:47.225 - 06:53.671
F#168:  06:53.852 - 06:54.400
G#169:  06:54.334 - 07:08.685
F#170:  07:08.199 - 07:08.989
G#171:  07:08.998 - 07:14.785
F#172:  07:15.046 - 07:18.164
G#173:  07:17.754 - 07:19.157
F#174:  07:19.387 - 07:25.305
G#175:  07:21.344 - 07:30.199
F#176:  07:26.058 - 07:34.405
G#177:  07:33.983 - 07:35.507
F#178:  07:37.627 - 07:40.884
G#179:  07:40.611 - 07:41.598
F#180:  07:41.393 - 07:42.454
G#181:  07:42.308 - 07:43.655
G#182:  07:42.728 - 07:47.121
F#183:  07:45.225 - 07:47.320
G#184:  07:48.801 - 07:54.013
F#185:  07:54.685 - 07:55.891
G#186:  07:55.176 - 08:00.280
F#187:  07:59.296 - 08:03.000
G#188:  08:03.457 - 08:03.867
F#189:  08:03.862 - 08:04.596
G#190:  08:05.097 - 08:05.675
F#191:  08:07.442 - 08:08.081
G#192:  08:08.229 - 08:12.013
F#193:  08:11.166 - 08:11.823
G#194:  08:12.991 - 08:13.352
F#195:  08:13.157 - 08:16.359
G#196:  08:18.051 - 08:22.689
F#197:  08:21.645 - 08:23.204
G#198:  08:23.681 - 08:25.761
F#199:  08:25.950 - 08:33.492
G#200:  08:34.857 - 08:38.826
F#201:  08:38.202 - 08:40.508
G#202:  08:39.147 - 08:41.624
F#203:  08:41.626 - 08:44.402
G#204:  08:43.348 - 08:48.134
F#205:  08:47.897 - 08:53.480
G#206:  08:52.383 - 08:57.167
F#207:  08:56.457 - 08:57.057
G#208:  08:57.560 - 09:00.446
F#209:  08:58.273 - 09:01.062
G#210:  09:02.524 - 09:04.799
F#211:  09:04.871 - 09:06.852
G#212:  09:06.454 - 09:09.298
F#213:  09:09.279 - 09:10.831
G#214:  09:10.839 - 09:15.388
F#215:  09:11.800 - 09:19.518
G#216:  09:19.394 - 09:24.502
F#217:  09:19.818 - 09:28.427
G#218:  09:25.326 - 09:29.263
F#219:  09:29.354 - 09:30.531
G#220:  09:30.779 - 09:33.859
F#221:  09:34.169 - 09:34.567
G#222:  09:34.206 - 09:37.657
F#223:  09:37.756 - 09:42.517
G#224:  09:42.624 - 09:44.047
F#225:  09:43.825 - 09:44.445
G#226:  09:45.814 - 09:47.696
F#227:  09:47.763 - 09:50.639
G#228:  09:51.141 - 09:54.381
F#229:  09:54.157 - 09:55.001
G#230:  09:55.164 - 09:58.212
F#231:  09:58.202 - 09:59.752
G#232:  09:58.642 - 10:00.856
F#233:  10:00.905 - 10:01.600
G#234:  10:01.343 - 10:02.883
F#235:  10:02.755 - 10:05.321
G#236:  10:03.193 - 10:04.498
F#237:  10:05.963 - 10:06.519
G#238:  10:06.426 - 10:11.560
F#239:  10:11.415 - 10:11.960
G#240:  10:12.642 - 10:14.792
F#241:  10:15.423 - 10:16.000
G#242:  10:16.122 - 10:17.790
F#243:  10:17.700 - 10:18.122
G#244:  10:19:267 - 10:21.224
F#245:  10:21.182 - 10:21.690
G#246:  10:22.235 - 10:26.320
F#247:  10:26.395 - 10:26.844
G#248:  10:26.780 - 10:27.165
F#249:  10:27.809 - 10:28.526
G#250:  10:27.884 - 10:31.231
F#251:  10:29.392 - 10:32.592
G#252:  10:33.270 - 10:35.195
F#253:  10:34.831 - 10:36.425
G#254:  10:36.772 - 10:37.201
F#255:  10:37.379 - 10:39.303
G#256:  10:39.282 - 10:39.924
F#257:  10:39.273 - 10:39.894
G#258:  10:39.497 - 10:42.502
F#259:  10:42.749 - 10:44.300
G#260:  10:44:107 - 10:48.505
F#261:  10:48.692 - 10:52.768
G#262:  10:51.500 - 10:59.331
F#263:  10:58.224 - 10:59.409
G#264:  10:59.732 - 11:06.215
F#265:  11:03.451 - 11:07.458
G#266:  11:07.658 - 11:08.117
F#267:  11:08.117 - 11:08.671
G#268:  11:10.741 - 11.12.834
F#269:  11:12.850 - 11:14.351
G#270:  11:14.150 - 11:21.096
F#271:  11:20.413 - 11:24.740
G#272:  11:23.410 - 11:26.438
F#273:  11:25.026 - 11:27.410
G#274:  11:28.432 - 11:35.796
F#275:  11:35.780 - 11:36.255
G#276:  11:36.187 - 11:51.415
F#277:  11:51.356 - 11:52.618
G#278:  11:51.649 - 11:53.175
F#279:  11:52.999 - 11:54.760
G#280:  11:53.921 - 11:57.414
F#281:  11:57.235 - 11:57.728
G#282:  11:57.665 - 12:02.864
F#283:  12:00.322 - 12:03.674
G#284:  12:03.358 - 12:03.940
F#285:  12:04.003 - 12:05.800
G#286:  12:05.268 - 12:06.723
F#287:  12:06.645 - 12:10.464
G#288:  12:10.048 - 12:13.045
F#289:  12:12.742 - 12.13.539
G#290:  12:13.680 - 12:19.539
F#291:  12:19.286 - 12.19.804
G#292:  12:19.931 - 12:19.386
F#293:  12:20.778 - 12.21.233
G#294:  12:20.968 - 12:23.472
F#295:  12:23.434 - 12.23.864
G#296:  12:23.915 - 12:25.687
F#297:  12:24.827 - 12:26.130
G#298:  12:25.991 - 12:29.241
F#299:  12:28.192 - 12.28.774
G#300:  12:30.747 - 12:43.218
F#301:  12:37.792 - 12:45.691
G#302:  12:43.974 - 12:49.528
F#303:  12:49.268 - 12:50.392
G#304:  12:49.942 - 12.53.988
F#305:  12:54.036 - 12:54.646
G#306:  12:54.838 - 12:58.386
F#307:  12:58.838 - 12:59.703
G#308:  12:59.639 - 13:03.124
F#309:  13:03.734 - 13:04.777
G#310:  13:03.910 - 13:05.836
F#311:  13:06.398 - 13:08.972
G#312:  13:09.072 - 13:10.931
F#313:  13:10.970 - 13:12.800
G#314:  13:12.157 - 13.13.096
F#315:  13:12.840 - 13:15.309
G#316:  13:13.673 - 13:17.994
F#317:  13:18.075 - 13:19.392
G#318:  13:19.999 - 13:20.624
F#319:  13:24:355 - 13:25.218
G#320:  13:24.197 - 13:37.684
F#321:  13:38.413 - 13:41.445
G#322:  13:40.832 - 13:42.176
F#323:  13:41.854 - 13:45.887
G#324:  13:44.997 - 13:48.216
F#325:  13:47.250 - 13:49.123
G#326:  13:49.137 - 13:51.883
F#327:  13:52.034 - 13:52.848
G#328:  13:52.786 - 14:01.675
F#329:  14:06.844 - 14:13.073
G#330:  14:06.779 - 14:13.059
F#331:  14:14.138 - 14.16.132
G#332:  14:15.520 - 14:19.596
F#333:  14:19.102 - 14:20.563
G#334:  14:20.346 - 14:20.852
F#335:  14:21.335 - 14:23.023
G#336:  14:24.237 - 14:24.992
F#337:  14:25.335 - 14:26.761
G#338:  14:28.301 - 14:34.571
F#339:  14:34.600 - 14:34.961
G#340:  14:34.605 - 14:40.890
F#341:  14:40.734 - 14:49.496
G#342:  14:49.200 - 14:50.574
F#343:  14:50.332 - 14:58.111
G#344:  14:57.284 - 14:58.715
F#345:  14:58.747 - 15:01.929
G#346:  15:01.117 - 15:03.839
F#347:  15:03.257 - 15:05.118
G#348:  15:04.447 - 15:06.229
F#349:  15:06.356 - 15:06.785
G#350:  15:07:040 - 15:08.424
F#351:  15:07.231 - 15:09.442
G#352:  15:09.364 - 15:14.820
F#353:  15:10.875 - 15.16.761
G#354:  15:17.190 - 15:18.495
F#355:  15:18.375 - 15:24.792
G#356:  15:29.500 - 15:32.599
F#357:  15:30.786 - 15:33.094
G#358:  15:32.604 - 15:35.446
F#359:  15:35.413 - 15:35.845
G#360:  15:36.206 - 15:38.290
F#361:  15:38.385 - 15:41.169
G#362:  15:40.174 - 15:44.023
F#363:  15:43.899 - 15:44.526
G#364:  15:44.404 - 15:46.348
F#365:  15:45.336 - 15:48.915
G#366:  15:49.003 - 15:49.485
F#367:  15:49.459 - 15:50.113
G#368:  15:50.222 - 15:50.869
F#369:  15:50.681 - 15:52.668
G#370:  15:53.385 - 15:55.378
F#371:  15:55.769 - 15:58.446
G#372:  16:01.488 - 16:04.091 
F#373:  16:03.320 - 16:04.364
G#374:  16:05.635 - 16:08.302
F#375:  16:08.477 - 16:12.144
G#376:  16:09.497 - 16:17.421
F#377:  16:17.528 - 16:18.655 
G#378:  16:18.155 - 16:19.890
F#379:  16:20.158 - 16:21.786
G#380:  16:21.178 - 16:22.251