LTp1A04O_tempi

panchina:  00:00.192 - 00:01.256
albero:  00:02.072 - 00:02.872
palazzo:  00:03.576 - 00:04.536
casa:  00:05.397 - 00:06.173
cavallo:  00:06.796 - 00:07.860
base:  00:08.722 - 00:09.450
statua:  00:10.254 - 00:11.165
cavaliere:  00:11.833 - 00:12.761
spada:  00:13.496 - 00:14.368
chioma:  00:15.339 - 00:16.075
finestre:  00:16.922 - 00:17.970
macchina:  00:18.725 - 00:19.661
automobile:  00:20.276 - 00:21.428
specchietto:  00:21.643 - 00:22.915
prato:  00:23.907 - 00:24.643
cane:  00:25.675 - 00:26.299
guinzaglio:  00:27.345 - 00:28.409
corda:  00:29.316 - 00:30.036
televisore:  00:30.900 - 00:32.132
televisione:  00:32.434 - 00:33.562
schermo:  00:34.354 - 00:35.258
antenna:  00:36.141 - 00:37.093
camino:  00:37.992 - 00:37.768
tronco:  00:39.810 - 00:40.642
fari:  00:41.243 - 00:42.003
luci:  00:42.707 - 00:43.435
bottoni:  00:44.114 - 00:45.058
pulsante:  00:45.934 - 00:47.150
ruote:  00:47.809 - 00:48.601
uomo:  00:49.329 - 00:50.089
bocca:  00:50.635 - 00:51.443
naso:  00:52.045 - 00:52.765
occhi:  00:53.615 - 00:54.391
maglia:  00:54.904 - 00:55.768
pantaloni:  00:56.330 - 00:57.370
comignolo:  00:57.985 - 00:59.034
foglie:  00:59.535 - 01:00.407
cappello:  01:01.061 - 01:02.181
tetto:  01:02.824 - 01:03.656
coda:  01:04.366 - 01:05.038  
zampe:  01:05.766 - 01:06.614
zampa:  01:07.254 - 01:08.110
scarpa:  01:08.711 - 01:09.671
piede:  01:10.287 - 01:10.983