LTp1A02H


panchina:  00:00.216 - 00:01.092


albero:  00:01.804 - 00:02.575


palazzo: 00:03.007 - 00_03.993


casa:  00:04.586 - 00:05.514


cavallo:  00:05.926 - 00:06.939


base:  00:07.413 - 00:08.341


statua:  00:09.132 - 00:10.047


cavaliere:  00:10.645 - 00:11.704


spada:  00:12.253 - 00:13.123


chioma:  00:13.626 - 00:14.541


finestre:  00:15.002 - 00:15.962


macchina:  00:16.427 - 00:17.250


automobile:  00:17.668 - 00:18.687


specchietto:  00:18.811 - 00:20.124


prato:  00:20.416 - 00:21.292


cane:  00:21.540 - 00:22.364


guinzaglio:  00:22.681 - 00:23.707


corda:  00:24.001 - 00:24.838


televisore:  00:24.955 - 00:25.955


televisione:  00:25.949 - 00:27.073


schermo:  00:27.488 - 00:28.272


antenna:  00:28.546 - 00:29.455


camino:  00:29.703 - 00:30.586


tronco:  00:31.119 - 00:32.034


fari:  00:32.446 - 00:33.159


luci:  00:33.792 - 00:34.492


bottoni:  00:34.607 - 00:35.646


pulsante:  00:35.653 - 00:36.797


ruote:  00:37.532 - 00:38.381


uomo:  00:38.630 - 39.310


bocca:  00:39.506 - 00:40.479


naso: 00:40.800 - 00:41.590


occhi:  00:41.980 - 00:42.660


maglia:  00:43.130 - 00:43.856


pantaloni:  00:43.843 - 00:44.921


comignolo:  00:45.076 - 00:46.174


foglie:  00:46.514 - 00:47.220


cappello:  00:47.418 - 00:48.575


tetto:  00:48.856 - 00:49.666


coda:  00:50.239 - 00:51.056


zampe:  00:51.317 - 00:52.265


zampa:  00:52.616 - 00:53.629


scarpa:  00:54.106 - 54.949


piede:  00:55.506 - 00:56.303