LTp2A02H


panchina:  00:00.817 - 00:01.882


albero:  00:02.222 - 00:02.967


palazzo:  00:03.026 - 00:04.131


casa:  00:04.270 - 00:05.133


cavallo:  00:05.334 - 00:06.340


base:  00:06.471 - 00:07.431


statua:  00:07.634 - 00:08.699


cavaliere:  00:08.699 - 00:09.829


spada:  00:10.070 - 00:11.076


chioma:  00:11.219 - 00:12.212

 
finestre:  00:12.512 - 00:13.610


macchina:  00:13.787 - 00:14.696


automobile:  00:15.029 - 00:16.140


specchietto:  00:16.125 - 00:17.334


prato:  00:17.365 - 18.365


cane:  00:18.403 - 00:19.546


guinzaglio:  00:19.539 - 00:20.813


corda:  00:20.912 - 00:22.056


televisore:  00:22.036 - 00:23.258


televisione:  00:23.289 - 00:24.747


schermo:  00:24.922 - 00:26.014


antenna:  00:26.019 - 00:27.359


camino:  00:27.593 - 00:29.116


tronco:  00:29.108 - 00:30.415


fari:  00:30.374 00:31.492


luci:  00:31.485 - 00:32.616


bottoni:  00:32.562 - 00:33.863


pulsante:  00:33.830 - 00:35.131


ruote:  00:35.188 - 00:36.253


uomo:  00:36.560 - 00:37.528


bocca:  00:37.558 - 00:38.741


naso:  00:38.884 - 00:39.767


occhi:  00:40.210 - 00:41.020


maglia: 00:41.437 - 00:42.385


pantaloni:  00:42.358 - 00:43.535


comignolo:  00:43.566 - 00:44.827


foglie:  00:45.010 - 00:46.017


cappello:  00:46.030 - 00:47.298


tetto:  00:47.381 - 00:48.413


coda:  00:48.505 - 00:49.616


zampe:  00:49.699 - 00:50.882


zampa:  00:50.942 - 00:52.073


scarpa:  00:52.164 - 00:53.328


piede:  00:53.333 - 00:54.398