TEXT_inf.

MAT:          LT
MAP:          A
TRM:
Ndl:          
Ntr:          
Nls:          04
REG:          E


SPEAKERS_inf.

INp1:         S. C., F, 18, Parma


RECORDING_inf.

TYP:          DAT
LOC:          Parma/scuola
DAT:          23/01/01
DUR:          1.58,045
CON:          buona


TRANSCRIPTION_inf.

DAT:          28/07/02
CMT:          
Nst:          44


panchina


albero


{<NOISE> palazzo}


casa


cavallo


base


statua


cavaliere


spada


chioma


finestre


macchina


automobile


specchietto


prato


cane


guinzaglio


corda


televisore


televisione


schermo


antenna


camino


tronco


fari


luci


bottoni


pulsante


ruote


uomo


bocca


naso


occhi


maglia


pantalone


comignolo


foglie


cappello


tetto


coda


zampe


{<NOISE> zampa}


scarpa


piede


