Tvit_03_tempi

#30:  01:35.457 - 01:43.884
#31:  01:43.884 - 01:53.156
#32:  01:53.156 - 01:58.402
#33:  01:58.401 - 02:01.655
#34:  02:01.655 - 02:09.561
#35:  02:09.561 - 02:14.541
#36:  02:14.541 - 02:25.979
