TVit_03V_tempi

p1#1:  00:00.000 - 00:06.508 circa

p2#5:  00:13.521 - 00:18.486 circa

p1#6:  00:18.733 - 00:20.024 circa 

p2#7:  00:20.127 - 00:21.451 circa

p1#10:  00:25.151 - 00:27.070 circa

p1#13:  00:31.465 - 00:34.567 circa

p2#14:  00:34.609 - 00:35.646 circa 

p1#18:  00:43.466 - 00:52.116 circa

p1#19:  00:52.064 - 00:56.771 circa

p1#20:  00:56.828 - 01:00.807 circa

p2#23:  01:02.943 - 01:06.961 circa

p1#24:  01:07.009 - 01:07.473 circa

p1#25:  01:07.568 - 01:12.697 circa

p1#26:  01:13.054 - 01:17.575 circa

p1#27:  01:17.768 - 01:23.121 circa

p1#30:  01:26.056 - 01:38.885

p1#40:  02:05.347 - 02:14.095

