TEXT_inf.

MAT:		LM
MAP:		A
TRM:
Ndl:		
Ntr:
Nls:		02
REG:		H


SPEAKERS_inf.

INp1:		C. C., F, 23, Catanzaro


RECORDING_inf.

TYP:		DAT
LOC:		Catanzaro
DAT:		26/03/01
DUR:		0.37,199
CON:		buone


TRANSCRIPTION_inf.

DAT:		24/04/01
CMT:
Nst:		23


televisione 


televisore 


sci 


torta 


dolce 


macchina 


automobile 


macchina rossa 


rossa 


blu 


macchina blu 


automobile rossa 


automobile blu 


maggiolino 


pettine 


farfalla 


camion 


camion rosso 


bicicletta 


occhiali 


dado 


lupo 


stelle
