TEXT_inf.

MAT: LP
MAP:
TRM: F
Ndl:
Ntr:
Nls: 01b
REG: Z


SPEAKERS_inf.

INp1: C. V., f, 36, Roma


RECORDING_inf.

TYP: acquisizione diretta su PC
LOC: Roma
DAT: 20/03/01
DUR: 0.04,216
CON: camera anecoica ISCTI Roma


TRANSCRIPTION_inf.

DAT: 12/09/01
CMT:
Nst: 1


#1: un mese di vacanza passa in fretta
