TEXT_inf.

MAT:		LT
MAP:		B
TRM:
Ndl:		
Ntr:		
Nls:		01
REG:		V


SPEAKERS_inf.

INp2:		E. M., F, 21, Venezia


RECORDING_inf.

TYP:		DAT
LOC:		Venezia/stanza parrocchiale
DAT:		13/12/00
DUR:		1.06,170
CON:		buone


TRANSCRIPTION_inf.

DAT:		22/12/01
CMT:		
Nst:		25


salvagente


pallini


bambino


occhi


naso


bocca


mano


dita


{[creaky-voice] mare}


uovo


tondi


ragazzo


onda


nuvola


barca


vela


spiaggia


tappo


costume


becco


bandiera


sasso


pietra


masso


ciambella
