temporizzazioni DGmtA04O

p1G#1:  0.534 - 3.293
p2F#2:  3.697 - 4.040
p1G#3:  4.093 - 8.305
p2F#4:  8.835 - 9.879
p1G#5:  9.308 - 15.254
p2F#6:  15.406 - 15.688
p1G#7:  15.734 - 25.976
p2F#8:  17.949 - 30.066
p1G#9:  26.476 - 33.584
p2F#10:  31.123 - 34.103
p1G#11:  34.050 - 38.075
p2F#12:  38.219 - 38.654
p1G#13:  38.753 - 39.912
p2F#14:  40.011 - 44.513
p1G#15:  47.787 - 48.633
p2F#16:  48.412 - 51.507
p1G#17:  51.553 - 51.942
p2F#18:  51.766 - 57.217
p1G#19:  57.813 - 1:01.829
p2F#20:  1:01.875 - 1:02.203
p1G#21:  1:02.257 - 1:13.730
p2F#22:  1:08.500 - 1:17.073
p1G#23:  1:14.063 - 1:17.075
p2F#24:  1:17.106 - 1:19.287
p1G#25:  1:17.882 - 1:19.373
p2F#26:  1:19.481 - 1:21.111
p1G#27:  1:21.286 - 1:28.155
p2F#28:  1:27.666 - 1:28.978
p1G#29:  1:28.737 - 1:29.894
p2F#30:  1:30.236 - 1:30.578
p1G#31:  1:30.772 - 1:36.658
p2F#32:  1:37.168 - 1:39.956
p1G#33:  1:40.468 - 1:44.067
p2F#34:  1:41.722 - 1:45.362
p1G#35:  1:45.455 - 1:48.611
p2F#36:  1:48.642 - 1:49.030
p1G#37:  1:49.139 - 1:50.243
p2F#38:  1:50.259 - 1:50.631
p1G#39:  1:50.794 - 1:56.302
p2F#40:  1:56.325 - 1:57.040
p1G#41:  1:56.869 - 2:00.834
p2F#42:  1:57.565 - 2:01.284
p1G#43:  2:01.367 - 2:13.919
p2F#44:  2:14.020 - 2:16.465
p1G#45:  2:16.007 - 2:17.016
p2F#46:  2:17.041 - 2:19.766
p1G#47:  2:20.597 - 2:21.517
p2F#48:  2:20.880 - 2:28.011
p1G#49:  2:28.099 - 2:29.815
p2F#50:  2:29.854 - 2:30.522
p1G#51:  2:30.366 - 2:31.531
p2F#52:  2:31.395 - 2:32.862
p1G#53:  2:33.289 - 2:42.281
p2F#54:  2:34.030 - 2:42.588
p1G#55:  2:42.288 - 2:44.126
p2F#56:  2:44.448 - 2:45.260
p1G#57:  2:45.020 - 2:46.031
p2F#58:  2:46.084 - 2:46.628
p1G#59:  2:46.709 - 3:01.613
p2F#60:  3:47.353 - 3:01.809
p1G#61:  3:01.829 - 3:02.931
p2F#62:  3:02.942 - 3:03.240  
p1G#63:  3:03.287 - 3:10.003
p2F#64:  3:11.054 - 3:14.377
p1G#65:  3:14.297 - 3:23.163
p2F#66:  3:23.556 - 3:28.417
p1G#67:  3:28.677 - 3:30.063
p2F#68:  3:30.170 - 3:32.747
p1G#69:  3:33.337 - 3:36.499
p2F#70:  3:34.439 - 3:36.828
p1G#71:  3:36.583 - 3:36.920  
p2F#72:  3:37.162 - 3:42.123
p1G#73:  3:41.695 - 3:42.101
p2F#74:  3:42.170 - 3:43.066
p1G#75:  3:43.081 - 3:43.380
p2F#76:  3:43.507 - 3:43.867
p1G#77:  3:43.507 - 3:45.218
p2F#78:  3:45.654 - 3:47.500
p1G#79:  3:47.033 - 3:47.950
p2F#80:  3:48.940 - 3:50.019
p1G#81:  3:49.928 - 3:53.112
p2F#82:  3:53.137 - 3:56.125
p1G#83:  3:55.716 - 3:56.170
p2F#84:  3:56.353 - 3:58.517
p1G#85:  3:58.526 - 4:03.505
p2F#86:  4:04.495 - 4:10.548
p1G#87:  4:07.327 - 4:13.991
p2F#88:  4:13.811 - 4:16.489
p1G#89:  4:16.002 - 4:17.673
p2F#90:  4:17.749 - 4:19.587
p1G#91:  4:19.934 - 4:25.730
p2F#92:  4:22.002 - 4:27.887
p1G#93:  4:28.008 - 4:29.302
p2F#94:  4:29.472 - 4:30.534
p1G#95:  4:30.561 - 4:33.300
p2F#96:  4:33.005 - 4:34.990
p1G#97:  4:35.089 - 4:44.236
p2F#98:  4:42.116 - 4:45.973
p1G#99:  4:45.782 - 4:52.255
p2F#100:  4:46.816 - 4:52.598
p1G#101:  4:52.674 - 5:00.446
p2F#102:  5:00.659 - 5:01.079
p1G#103:  5:01.338 - 5:07.822
p2F#104:  5:07.974 - 5:08.660
p1G#105:  5:08.729 - 5:13.840  
p2F#106:  5:13.879 - 5:14.303
p1G#107:  5:14.314 - 5:17.642
p2F#108:  5:17.360 - 5:18.162
p1G#109:  5:18.180 - 5:21.721
p2F#110:  5:23.263 - 5:27.068
p1G#111:  5:27.191 - 5:37.732
p2F#112:  5:28.959 - 5:39.168
p1G#113:  5:39.182 - 5:40.054
p2F#114:  5:40.072 - 5:41.297
p1G#115:  5:41.305 - 5:41.966
p2F#116:  5:42.503 - 5:43.613
p1G#117:  5:43.146 - 5:44.018
p2G#118:  5:44.543 - 5:48.357
p1F#119:  5:48.472 - 5:49.485
p2G#120:  5:50.013 - 5:51.493
p1F#121:  5:51.599 - 5:51.958
p2G#122:  5:52.099 - 5:55.721
p1F#123:  5:55.460 - 5:55.871
p2G#124:  5:57.087 - 6:01.177
p1F#125:  6:01.046 - 6:01.363
p2G#126:  6:01.504 - 6:03.510
p1F#127:  6:03.532 - 6:03.860
p2G#128:  6:04.076 - 6:08.572
p1F#129:  6:08.580 - 6:08.923
p2G#130:  6:09.012 - 6:13.469
p1F#131:  6:13.651 - 6:14.868
p2G#132:  6:15.403 - 6:17.791
p1F#133:  6:16.985 - 6:18.679
p2G#134:  6:18.119 - 6:21.313
p1F#135:  6:24.820 - 6:27.072
p2G#136:  6:26.703 - 6:30.810
p1F#137:  6:29.131 - 6:31.284
p2G#138:  6:31.286 - 6:33.767
p1F#139:  6:34.042 - 6:34.576
p2G#140:  6:34.992 - 6:36.282
p1F#141:  6:36.652 - 6:40.431
p2G#142:  6:39.362 - 6:45.690
p1F#143:  6:45.114 - 6:45.694
p2G#144:  6:46.168 - 6:51.838
p1F#145:  6:53.718 - 6:55.673
p2G#146:  6:55.940 - 6:57.790
p1F#147:  6:57.057 - 7:04.920
p2G#148:  7:05.156 - 7:09.774
p1F#149:  7:12.287 - 7:13.722
p2G#150:  7:13.601 - 7:19.288
p1F#151:  7:16.699 - 7:20.678
p2G#152:  7:21.043 - 7:23.524
p1F#153:  7:23.189 - 7:23.776
p2G#154:  7:23.883 - 7:28.341
p1F#155:  7:29.085 - 7:29.558
p2G#156:  7:29.795 - 7:31.245
p1F#157:  7:31.390 - 7:31.825
p2G#158:  7:32.162 - 7:37.790
p1F#159:  7:42.701 - 7:43.152
p2G#160:  7:43.763 - 7:49.137
p1F#161:  7:49.311 - 7:49.822
p2G#162:  7:50.170 - 7:52.147
p1F#163:  7:52.155 - 7:52.674
p2G#164:  7:52.904 - 7:58.140
p1F#165:  8:01.135 - 8:01.684
p2G#166:  8:01.800 - 8:05.873
p1F#167:  8:06.001 - 8:06.574
p2G#168:  8:06.775 - 8:10.641
p1F#169:  8:08.477 - 8:16.246
p2G#170:  8:11.336 - 8:18.098
p1F#171:  8:18.204 - 8:18.601
p2G#172:  8:18.617 - 8:22.475
p1F#173:  8:21.943 - 8:29.521  
p2G#174:  8:23.694 - 8:32.590
p1F#175:  8:32.598 - 8:32.964
p2G#176:  8:33.071 - 8:34.231
p1F#177:  8:34.413 - 8:34.917 
p2G#178:  8:34.604 - 8:41.447
p1F#179:  8:41.475 - 8:41.856
p2G#180:  8:42.226 - 8:50.113
p1F#181:  8:45.071 - 9:04.869
p2G#182:  9:03.207 - 9:06.276
p1F#183:  9:06.103 - 9:09.227
p2G#184:  9:07.704 - 9:15.338
p1F#185:  9:15.232 - 9:15.601
p2G#186:  9:15.611 - 9:18.685
p1F#187:  9:18.972 - 9:19.726
p2G#188:  9:19.528 - 9:20.380
p1F#189:  9:20.418 - 9:20.795
p2G#190:  9:20.828 - 9:22.623
p1F#191:  9:22.412 - 9:22.758
p2G#192:  9:22.921 - 9:28.798
p1F#193:  9:30.401 - 9:32.365
p2G#194:  9:31.216 - 9:34.348
p1F#195:  9:33.323 - 9:35.536
p2G#196:  9:36.764 - 9:43.580
p1F#197:  9:42.947 - 9:46.181
p2G#198:  9:46.274 - 9:54.963
p1F#199:  9:54.726 - 9:57.374
p2G#200:  9:56.528 - 9:58.413
p1F#201:  9:58.288 - 10:00.035
p2G#202:  10:00.480 - 10:02.731
p1F#203:  10:01.435 - 10:02.972
p2G#204:  10:03.383 - 10:08.926
p1F#205:  10:09.247 - 10:11.731
p2G#206:  10:11.809 - 10:13.726
p1F#207:  10:13.757 - 10:14.122
p2G#208:  10:14.177 - 10:16.586
p1F#209:  10:14.179 - 10:15.864
p2G#210:  10:16.749 - 10:24.152
p1F#211:  10:20.542 - 10:24.183
p2G#212:  10:26.934 - 10:38.561
p1F#213:  10:37.886 - 10:40.153
p2G#214:  10:39.781 - 10:45.149
p1F#215:  10:45.812 - 10:48.257
p2G#216:  10:48.118 - 10:51.821
p1F#217:  10:49.103 - 10:52.612
p2G#218:  10:52.472 - 10:56.051
p1F#219:  10:53.000 - 10:59.802
p2G#220:  10:58.179 - 11:00.392
p1F#221:  11:00.506 - 11:01.503
p2G#222:  11:01.146 - 11:02.543
p1F#223:  11:01.837 - 11:03.436
p2G#224:  11:03.281 - 11:07.011
p1F#225:  11:07.677 - 11:09.540
p2G#226:  11:09.618 - 11:13.978
p1F#227:  11:14.404 - 11:27.601
p2G#228:  11:24.721 - 11:28.747
p1F#229:  11:28.607 - 11:30.765
p2G#230:  11:31.014 - 11:31.666
p1F#231:  11:32.613 - 11:33.708

