LMp2A04O_tempi

televisione:  00:00.473 - 00:01.504
televisore:  00:02.279 - 00:03.236
sci:  00:04.069 - 00:04.559
torta:  00:05.500 - 00:06.253
dolce:  00:07.049 - 00:07.758
macchina:  00:08.268 - 00:09.086
automobile:  00:09.995 - 00:10.982
macchina rossa:  00:11.741 - 00:12.801
rossa:  00:13.020 - 00:13.627
blu:  00:14.315 - 00:14.717
macchina blu:  00:15.411 - 00:16.361
automobile rossa:  00:16.771 - 00:18.050
automobile blu:  00:18.408 - 00:19.454
maggiolino:  00:20.026 - 00:20.954
pettine:  00:21.117 - 00:21.935
farfalla:  00:22.337 - 00:23.324
camion:  00:23.939 - 00:24.677
camion rosso:  00:25.231 - 00:26.495
bicicletta:  00:26.974 - 00:28.122
occhiali:  00:28.400 - 00:29.240
dado:  00:29.711 - 00:30.311
lupo:  00:30.830 - 00:31.524
stelle:  00:32.065 - 00:32.942