TEXT_inf.

MAT:		LT
MAP:		B
TRM:
Ndl:		
Ntr:
Nls:		03
REG:		H


SPEAKERS_inf.

INp1:		A. C., M, 27, Soveria Simeri (CZ)


RECORDING_inf.

TYP:		DAT
LOC:		Catanzaro
DAT:		09/06/01
DUR:		0.25,852
CON:		buone


TRANSCRIPTION_inf.

DAT:		20/07/01
CMT:
Nst:		25


salvagente


pallini


bambino


occhi


naso


bocca


mano


dita


mare


uovo


tondi


ragazzo


onda


nuvola


barca


vela


spiaggia


tappo


costume


becco


bandiera


sasso


pietra


masso


ciambella
