TEXT_inf.

MAT:        LM
MAP:        B
TRM:
Ndl:
Ntr:
Nls:        01
REG:        L


SPEAKERS_inf.

INp2:		P. C., F, 21, Augusta (SR)


RECORDING_inf.

TYP:		DAT
LOC:		Lecce
DAT:		23/03/01
DUR:		0.25,998
CON:		ottime


TRANSCRIPTION_inf.

DAT:		05/03/02
CMT:
Nst:		18


limoni


frigorifero


gatto


freccia


treno


sedia


pipa


barca


forchetta


bar


mano


cuore


cuore rosso


rosso


giallo


cuore giallo


gelato


cono
