LTp2A01T_panchina.wav		1.175	2.049	

LTp2A01T_albero.wav		3.552	4.070	

LTp2A01T_palazzo.wav		5.343	6.128	

LTp2A01T_casa.wav		7.439	8.015	

LTp2A01T_cavallo.wav		9.287	10.018	

LTp2A01T_base.wav		11.380	11.858	

LTp2A01T_statua.wav		13.290	13.861	

LTp2A01T_cavaliere.wav		15.155	15.901	

LTp2A01T_spada.wav		17.486	18.236	

LTp2A01T_chioma.wav		19.408	20.015	

LTp2A01T_finestre.wav		21.123	21.860	

LTp2A01T_macchina.wav		22.927	23.571	

LTp2A01T_automobile.wav		24.642	25.410	

LTp2A01T_specchietto.wav	26.669	27.570	

LTp2A01T_prato.wav		28.734	29.276	

LTp2A01T_cane.wav		30.591	31.063	

LTp2A01T_guinzaglio.wav		32.626	33.349	

LTp2A01T_corda.wav		34.564	35.120	

LTp2A01T_televisore.wav		37.706	38.621	

LTp2A01T_televisione.wav	40.711	41.608	

LTp2A01T_schermo.wav		42.725	43.419	

LTp2A01T_antenna.wav		44.426	45.198	

LTp2A01T_camino.wav		46.250	46.870	

LTp2A01T_tronco.wav		48.620	49.253	

LTp2A01T_fari.wav		50.497	51.051	

LTp2A01T_luci.wav		52.088	52.635	

LTp2A01T_bottoni.wav		53.627	54.370	

LTp2A01T_pulsante.wav		55.379	56.293	

LTp2A01T_ruote.wav		59.320	1.00.036

LTp2A01T_uomo.wav		1.01.167  1.01.739

LTp2A01T_bocca.wav		1.03.161  1.03.785

LTp2A01T_naso.wav		1.04.994  1.05.625

LTp2A01T_occhi.wav		1.07.084  1.07.665

LTp2A01T_maglia.wav		1.09.050  1.09.664

LTp2A01T_pantalone.wav		1.10.834  1.11.704

LTp2A01T_comignolo.wav		1.12.837  1.13.647

LTp2A01T_foglie.wav		1.15.112  1.15.700

LTp2A01T_cappello.wav		1.17.124  1.18.058

LTp2A01T_tetto.wav		1.19.375  1.20.037

LTp2A01T_coda.wav		1.21.273  1.21.855

LTp2A01T_zampe.wav		1.25.194  1.23.901

LTp2A01T_zampa.wav		1.25.100  1.25.756

LTp2A01T_scarpa.wav		1.26.994  1.27.670

LTp2A01T_piede.wav		1.28.754  1.29.296
