Temporizzazioni DGmtB04R

p1#G1:   00:05.145 - 00:23.671
p2#F2:   00:21.538 - 00:27.882
p1#G3:   00:27.540 - 00:29.792
p2#F4:   00:29.933 - 00:31.235
p1#G5:   00:31.183 - 00:33.600
p2#F6:   00.32.027 - 00:33.624
p1#G7:   00:34.204 - 00:45.206
p2#F8:   00:44.717 - 00:50.103
p1#G9:   00:49.025 - 00:54.987
p2#F10:  00:55.160 - 00:56.165
p1#G11:  00:56.480 - 00:59.469
p2#F12:  00:59.503 - 00:59.890
p1#G13:  01:00.095 - 01:05.210
p2#F14:  01:06.461 - 01:06.665
p1#G15:  01:06.712 - 01:08.110
p2#F16:  01:07.896 - 01:08.159
p1#G17:  01:08.517 - 01:18.198
p2#F18:  01:19.401 - 01:22.631
p1#G19:  01:23.092 - 01:24.234
p2#F20:  01:23.564 - 01:23.910
p1#G21:  01:24.282 - 01:27.899
p2#F22:  01:27.868 - 01:31.567
p1#G23:  01:28.044 - 01:35.179
p2#F24:  01:35.401 - 01:35.795
p1#G25:  01:35.781 - 01:36.980
p2#F26:  01:37.783 - 01:44.041
p1#G27:  01:44.248 - 02:03.771
p2#F28:  01:47.298 - 02:04.638
p1#G29:  02:03.885 - 02:09.087
p2#F30:  02:09.789 - 02:16.147
p1#G31:  02:15.982 - 02:17.303
p2#F32:  02:19.615 - 02:23.330
p1#G33:  02:23.413 - 02:24.610
p2#F34:  02:23.991 - 02:25.271
p1#G35:  02:25.075 - 02:31.474
p2#F36:  02:25.694 - 02:32.135
p1#G37:  02:31.840 - 02:41.083
p2#F38:  02:34.519 - 02:41.496
p1#G39:  02:41.826 - 02:42.693
p2#F40:  02:42.281 - 02:43.519
p1#G41:  02:43.024 - 02:45.212
p2#F42:  02:44.882 - 02:45.666
p1#G43:  02:45.542 - 02:48.391
p2#F44:  02:48.391 - 02:48.928
p1#G45:  02:48.680 - 02:49.753
p2#F46:  02:49.795 - 02:51.240
p1#G47:  02:50.951 - 02:52.891
p2#F48:  02:53.428 - 02:55.038
p1#G49:  02:54.460 - 02:58.052
p2#F50:  02:54.997 - 02:58.382
p1#G51:  02:58.372 - 03:05.597
p2#F52:  03:03.656 - 03:06.340
p1#G53:  03:06.175 - 03:11.418
p2#F54:  03:12.528 - 03:23.799
p1#G55:  03:19.299 - 03:25.244
p2#F56:  03:25.657 - 03:27.721
p1#G57:  03:26.524 - 03:33.790
p2#F58:  03:34.781 - 03:35.276
p1#G59:  03:35.152 - 03:42.130
p2#F60:  03:43.441 - 03:49.551
p1#G61:  03:49.716 - 03:50.955
p2#F62:  03:51.491 - 03:53.101
p1#G63:  03:54.423 - 03:57.313
p2#F64:  03:57.354 - 03:57.849
p1#G65:  03:58.510 - 04:06.519
p2#F66:  04:06.623 - 04:10.545
p1#G67:  04:10.642 - 04:17.605
p2#F68:  04:17.109 - 04:23.137
p1#G69:  04:21.320 - 04:23.426
p2#F70:  04:23.359 - 04:29.762
p1#G71:  04:24.515 - 04:30.870
p2#F72:  04:31.830 - 04:36.364
p1#G73:  04:35.959 - 04:50.179
p2#F74:  04:54.530 - 04:57.213
p1#G75:  04:58.782 - 05:03.736
p2#F76:  05:05.739 - 05:13.624
p1#G77:  05:12.799 - 05:14.079
p2#F78:  05:14.657 - 05:17.051
p1#G79:  05:16.886 - 05:17.547
p2#F80:  05:17.423 - 05:19.198
p1#G81:  05:19.033 - 05:19.941
p2#F82:  05:19.900 - 05:21.716
p1#G83:  05:21.510 - 05:46.860
p2#F84:  05:29.313 - 05:49.791
p1#G85:  05:49.461 - 06:05.975
p2#F86:  06:07.131 - 06:08.947
p1#G87:  06:08.658 - 06:14.149
p2#F88:  06:14.975 - 06:17.494
p1#G89:  06:17.736 - 06:18.314
p2#F90:  06:18.108 - 06:19.140
p1#G91:  06:18.810 - 06:19.553
p2#F92:  06:20.420 - 06:25.952
p1#G93:  06:25.911 - 06:27.438
p2#F94:  06:27.727 - 06:28.223
p1#G95:  06:28.512 - 06:31.939
p2#F96:  06:33.317 - 06:48.716
p1#G97:  06:49.790 - 06:52.556
p2#F98:  06:52.396 - 06:59.001
p1#G99:  06:58.093 - 07:02.428
p2#F100:  07:02.469 - 07:03.625
p1#G101:  07:03.584 - 07:14.979
p2#F102:  07:17.240 - 07:17.735
p1#G103:  07:18.354 - 07:24.795
p2#F104:  07:25.043 - 07:25.662
p1#G105:  07:25.497 - 07:30.575
p2#F106:  07:31.731 - 07:34.456
p1#F107:  07:43.528 - 07:37.170
p2#G108:  07:34.569 - 07:43.859
p1#F109:  07:39.317 - 07:44.395
p2#G110:  07:44.354 - 07:46.872
p1#F111:  07:47.896 - 07:53.538
p2#G112:  07:53.601 - 07:55.465
p1#F113:  07:53.953 - 07:55.857
p2#G114:  07:56.631 - 08:02.122
p1#F115:  07:57.686 - 08:05.374
p2#G116:  08:05.233 - 08:05.727
p1#F117:  08:06.256 - 08:08.865
p2#G118:  08:09.346 - 08:11.815
p1#F119:  08:10.757 - 08:17.245
p2#G120:  08:16.771 - 08:23.583
p1#F121:  08:23.385 - 08:25.450
p2#G122:  08:24.788 - 08:27.100
p1#F123:  08:27.637 - 08:29.000
p2#G124:  08:29.289 - 08:34.532
p1#F125:  08:31.064 - 08:37.215
p2#G126:  08:37.277 - 08:39.466
p1#F127:  08:39.424 - 08:40.126
p2#G128:  08:41.076 - 08:45.246
p1#F129:  08:46.278 - 08:48.383
p2#G130:  08:48.425 - 08:49.044
p1#F131:  08:49.085 - 08:51.769
p2#G132:  08:52.078 - 08:52.574
p1#F133:  08:52.656 - 08:53.317
p2#G134:  08:54.679 - 09:00.501
p1#F135:  09:00.914 - 09:01.946
p2#G136:  09:01.574 - 09:09.212
p1#F137:  09:09.320 - 09:19.766
p2#G138:  09:20.963 - 09:23.936
p1#F139:  09:24.348 - 09:26.702
p2#G140:  09:27.140 - 09:37.957
p1#F141:  09:38.040 - 09:38.700
p2#G142:  09:38.494 - 09:45.059
p1#F143:  09:44.893 - 09:46.297
p2#G144:  09:46.132 - 09:47.783
p1#F145:  09:48.072 - 09:48.774
p2#G146:  09:49.187 - 09:51.582
p1#F147:  09:50.880 - 09:52.242
p2#G148:  09:52.284 - 09:53.522
p1#F149:  09:53.687 - 09:58.146




