TEXT_inf.

MAT:  LM
MAP:  B
TRM:
Ndl:  
Ntr:
Nls:  03
REG:  C


SPEAKERS_inf.

INp1:  L. C., M, 20, Cagliari


RECORDING_inf.

TYP:  DAT
LOC:  Cagliari/UniversitÓ
DAT:  23/10/01
DUR:  0.24,864
CON:  buone


TRANSCRIPTION_inf.

DAT:  02/02/02
CMT:
Nst:  18


limoni


frigorifero


gatto


freccia


treno


<inspiration> sedia


pipa


barca


forchetta


bar


mano


cuore


cuore rosso


rosso


giallo


cuore giallo


gelato


<inspiration> cono
