temporizzazioni RDit_23B 


p0#1: 0:00.000 - 0:01.350

p0#2: 0:01.359 - 0:07.514

p0#3: 0:07.853 - 0:13.209

p0#4: 0:13.672 - 0:17.649

p0#5: 0:17.955 - 0:23.190

p0#6: 0:23.510 - 0:28.851

p0#7: 0:29.049 - 0:31.942