TEXT_inf.

MAT:		LM
MAP:		B
TRM:
Ndl:		
Ntr:
Nls:		01
REG:		O


SPEAKERS_inf.

INp1:		B. G., F, 24, Perugia


RECORDING_inf.

TYP:		DAT
LOC:		Perugia/UniversitÓ
DAT:		08/01/01
DUR:		0.30,161
CON:		buone


TRANSCRIPTION_inf.

DAT:		23/04/01		
CMT:
Nst:		18


limoni	


frigorifero


gatto


freccia


treno


sedia


pipa


barca


forchetta


bar


mano


cuore


cuore rosso


rosso


giallo


cuore giallo


gelato


cono
