TEXT_inf.

MAT:		LM
MAP:		B		
TRM:
Ndl:		
Ntr:
Nls:		03
REG:		O


SPEAKERS_inf.

INp1:		M. G., M, 24, Umbertide (PG)
 

RECORDING_inf.

TYP:		DAT
LOC:		Perugia/UniversitÓ
DAT:		25/01/01
DUR:		0.24,353 
CON:		buone


TRANSCRIPTION_inf.

DAT:		04/05/01
CMT:		
Nst:		18


limoni


frigorifero


gatto


freccia


treno


sedia


pipa


barca


forchetta


bar


mano


cuore


cuore <sp> rosso


rosso


giallo


cuore <sp> giallo


gelato


cono
