TEXT_inf.

MAT:		LT
MAP:		B		
TRM:
Ndl:		
Ntr:
Nls:		03		
REG:		O


SPEAKERS_inf.

INp1:		M. G., M, 24, Umbertide (PG)


RECORDING_inf.

TYP:		DAT
LOC:		Perugia/UniversitÓ
DAT:		25/01/01
DUR:		0.34,420
CON:		buone


TRANSCRIPTION_inf.

DAT:		04/05/01
CMT:		
Nst:       	25


salvagente


pallini


bambino


occhi


naso


bocca


mano


dita


mare


uovo


tondi


ragazzo


onda


nuvola


barca


vela


spiaggia


tappo


costume


becco


bandiera


sasso


pietra


masso


ciambella
