TEXT_inf.

MAT: 		TV
MAP:
TRM:		pb
Ndl:
Ntr:		02
Nls:
REG:		Z


SPEAKERS_inf.

INp0: 	        M


RECORDING_inf.

TYP:	        PC
LOC:	        Roma
DAT:	        10/2/01
DUR:	        0.11,762
CON: 	        buone


TRANSCRIPTION_inf.

DAT:		17/04/01	
CMT:		
Nst:		3



p0#1:  <NOISE> scegli un numero che ti assomiglia


p0#2:  BluEgo <sp> il numero di telefono <sp> che inventi tu


p0#3:  e fino al quindici febbraio <sp> trentamilalire di telefonate in regalo 

<NOISE>
