TEXT_inf.

MAT:           	LM
MAP:           	A
TRM:
Ndl:           
Ntr:           
Nls:           	01
REG:           	M


SPEAKERS_inf.

INp2:          	E. B., F, 23, Milano


RECORDING_inf.

TYP:           	DAT
LOC:           	Milano/aula universitaria
DAT:           	28/11/00
DUR:           	1.02,304
CON:           	buone


TRANSCRIPTION_inf.

DAT:           	12/07/02
CMT:           
Nst:           	23


televisione


televisore


sci


torta


dolce


macchina


automobile


macchina rossa


rossa


blu


macchina blu


automobile rossa


automobile blu


maggiolino


pettine


farfalla


camion


camion rosso


bicicletta


occhiali


dado


lupo


stelle
