TEXT_inf.

MAT:		LT
MAP:		B
TRM:
Ndl:		
Ntr:
Nls:		01
REG:		N


SPEAKERS_inf.

INp1:		B. A., F, 19, Napoli


RECORDING_inf.

TYP:		DAT
LOC:		Napoli/UniversitÓ
DAT:		12/12/00
DUR:		0.28,875
CON:		buone


TRANSCRIPTION_inf.

DAT:		04/05/01 
CMT: 
Nst: 		25


salvagente


pallini


bambino


occhi


naso


bocca


mano


dita


mare


uovo


tondi


ragazzo


onda


nuvola


{<vocal> barca}


vela


spiaggia


tappo


costume


becco


bandiera


sasso


pietra


masso


ciambella
