TEXT_inf.

MAT: 		LM
MAP: 		B
TRM:
Ndl: 
Ntr:
Nls: 		03
REG: 		T


SPEAKERS_inf.

INp2: 		S. S., M, 25, Torino

 
RECORDING_inf.

TYP: 		DAT
LOC: 		TORINO/ABITAZIONE
DAT:		31/01/01
DUR:		0.46,363
CON:		abbastanza buone


TRANSCRIPTION_inf.

DAT:		17/08/02
CMT:		fruscio di fondo
Nst:		18


limoni


frigorifero


gatto


freccia


treno


sedia


pipa


barca


forchetta


bar


mano


cuore


cuore rosso


rosso


giallo


cuore giallo


gelato


cono
