TEXT_inf.

MAT:		RD
MAP:		
TRM:		pb
Ndl:		
Ntr:		01
Nls:		
REG:		F


SPEAKERS_inf.

INp1:		F
INp2:		M


RECORDING_inf.

TYP:		PC
LOC:		Firenze/abitazione
DAT:		13/02/01
DUR:		1.08,958
CON: 		buone


TRANSCRIPTION_inf.

DAT:		
CMT:		trascritto da 37"563ms a 51"891ms
Nst:		5


p1#1:  uffa , che cosa preparo ?


<sp>


p2#2:  non farti prendere dal panico , quando arriva l'ora di cena vai sul 
       sicuro


p2#3:  scegli Rio Mare <sp> e la tranquillità di un alimento sempre sano e 
       genuino


<sp>


p1#4:  ottima idea <sp> e stasera filetti di salmone Rio Mare


<sp>


p2#5:  non ti preoccupare <sp> scegli Rio Mare  
