LTp2A04M


panchina       1.001 a    1.719   
albero         3.719 a    4.313
palazzo        6.313 a    7.017
casa           9.017 a    9.584
cavallo       11.584 a   12.263
base          14.263 a   14.795
statua        16.795 a   17.393
cavaliere     19.393 a   20.185
spada         22.185 a   22.763
chioma        24.763 a   25.298
finestre      27.298 a   28.105
macchina      30.105 a   30.771
automobile    32.771 a   33.591
specchietto   35.591 a   36.490
prato         38.490 a   39.045
cane          41.045 a   41.549
guinzaglio    43.549 a   44.496
corda         46.496 a   47.097
televisore    49.097 a   49.978
televisione   51.978 a   52.905
schermo       54.905 a   55.609
antenna       57.609 a   58.367
camino      1:00.367 a 1:01.016
tronco      1:.03016 a 1:03.386
fari        1:05.386 a 1:06.254
luci        1:08.254 a 1:08.892
bottoni     1:10.892 a 1:11.658
pulsante    1:13.658 a 1:14.619
ruote       1.16.619 a 1:17.293
uomo        1:19.293 a 1:19.883
bocca       1:21.883 a 1:22.570
naso        1:24.570 a 1:25.192
occhi       1:27.192 a 1:27.771
maglia      1:29.771 a 1:30.432
pantalone   1:32.432 a 1:33.255
comignolo   1:35.255 a 1:36.049
foglie      1.38.049 a 1:38.776
cappello    1:40.776 a 1:41.634
tetto       1:43.634 a 1:44.217
coda        1:46.217 a 1:46.784
zampe       1:48.784 a 1:49.464
zampa       1:51.464 a 1:52.113
scarpa      1:54.113 a 1:54.806
piede       1:56.806 a 1:57.365



