RDis_02C_temporizzazioni

p1#7:  1:35.560 - 1:37.767
p1#8:  1:37.355 - 1:43.453
p1#9:  1:43.453 - 1:46.290
p1#10: 1:45.965 - 1:50.224
p1#11: 1:49.870 - 1:52.538
p1#12: 1:52.720 - 1:55.455
p1#13: 1:55.245 - 1:57.328
p1#14: 1:57.068 - 1:59.701
p1#15: 1:59.456 - 2:03.844
p1#16: 2:03.844 - 2:11.475