TEXT_inf.

MAT:           	LT
MAP:           	A
TRM:
Ndl:           
Ntr:           
Nls:           	01
REG:           	M


SPEAKERS_inf.

INp2:          	E. B., F, 23, Milano


RECORDING_inf.

TYP:           	DAT
LOC:           	Milano/aula universitaria
DAT:           	28/11/00
DUR:           	1.55,297
CON:           	buone


TRANSCRIPTION_inf.

DAT:           	12/07/02
CMT:           
Nst:           	44


panchina


albero


palazzo


casa


cavallo


base


statua


cavaliere


spada


chioma


finestre


macchina


automobile


specchietto


prato


cane


guinzaglio


corda


televisore


televisione


schermo


antenna


camino


tronco


fari


luci


bottoni


{<NOISE> pulsante}


ruote


uomo


bocca


naso


occhi


maglia


pantalone


comignolo


foglie


cappello


tetto


coda


zampe


zampa


scarpa


piede
