DGmtB01V_tempo

turno	istante di inizio [ms]	istante di fine [ms]
p1G#1	1409	4653
		
p2F#2	4321	5465
		
p1G#3	6015	11093
		
p2F#4	8875	11650
		
p1G#5	11509	12675
		
p2G#6	12689	13319
		
p1G#7	13664	17539
		
p2F#8	16431	21817
		
p1G#9	20623	27128
		
p2F#10	26644	27721
		
p1G#11	28036	28891
		
p2F#12	28954	29337
		
p1G#13	29626	31638
		
p2F#14	32973	36827
		
p1G#15	33174	39226
		
p2F#16	38358	39006
		
p1G#17	39347	42405
		
p2F#18	42613	43499
		
p1G#19	43811	47793
		
p2F#20	45267	48242
		
p1G#21	47837	49517
		
p2F#22	49350	51433
		
p1G#23	51251	52828
		
p2F#24	51897	52918
		
p1G#25	53103	53822
		
p2F#26	53548	54500
		
p1G#27	54186	55408
		
p2F#28	55656	58266
		
p1G#29	58121	58970
		
p2F#30	58972	60959
		
p1F#31	61234	65686
		
p2F#32	65713	66522
		
p1G#33	66783	74883
		
p2F#34	75811	78716
		
p1G#35	76244	79101
		
p2F#36	79289	80283
		
p1G#37	80095	81129
		
p2F#38	81134	83010
		
p1G#39	83148	83784
		
p2F#40	83785	84354
		
p1G#41	84377	85058
		
p2F#42	85433	85692
		
p1G#43	85609	89349
		
p2F#44	90429	93228
		
p1G#45	91657	94754
		
p2F#46	94635	95062
		
p1G#47	95012	96480
		
p2F#48	96741	97161
		
p1G#49	96749	99251
		
p2F#50	99732	103123
		
p1G#51	100993	105147
		
p2F#52	105420	108663
		
p1G#53	106712	112485
		
p2F#54	112886	116176
		
p1G#55	115297	117743
		
p2F#56	117815	118442
		
p1G#57	117902	123187
		
p2F#58	119376	125064
		
p1G#59	123365	127780
		
p2F#60	127931	130244
		
p1G#61	130103	131337
		
p2F#62	131408	133017
		
p1G#63	132702	134308
		
p2F#64	134419	136214
		
p1G#65	136278	139444
		
p2F#66	140059	143685
		
p1G#67	142234	149300
		
p2F#68	145555	150332
		
p1G#69	149946	153054
		
p2F#70	151720	153962
		
p1G#71	153629	155610
		
p2F#72	155468	162364
		
p1G#73	156982	162789
		
p2F#74	163136	164002
		
p1G#75	163713	167007
		
p2F#76	167723	169089
		
p1G#77	169005	169832
		
p2F#78	169909	176658
		
p1G#79	173530	178924
		
p2F#80	177798	179936
		
p1G#81	180002	183245
		
p2F#82	183146	183645
		
p1G#83	183825	191510
		
p2F#84	187622	193378
		
p1G#85	192557	196629
		
p2F#86	194375	197769
		
p1G#87	197365	198429
		
p2F#88	198513	200530
		
p1G#89	200623	201246
		
p2F#90	201148	202354
		
p1G#91	202231	203136
		
p2F#92	203139	205719
		
p1G#93	204383	207010
		
p2F#94	206768	207967
		
p1G#95	208007	208648
		
p2F#96	208095	211423
		
p1G#97	210032	212453
		
p2F#98	212467	213950
		
p1G#99	214073	217579
		
p2F#100	215009	217798
		
p1G#101	217756	219109
		
p2F#102	218690	219984
		
p1G#103	220264	221978
		
p2F#104	220007	223316
		
p1G#105	223891	225606
		
p2F#106	225944	227844
		
p1G#107	228151	229322
		
p2F#108	229545	230352
		
p1G#109	229874	231676
		
p2F#110	231897	233633
		
p1G#111	233558	234446
		
p2F#112	234224	234954
		
p1G#113	234966	236587
		
p2F#114	235960	237344
		
p1G#115	237371	242081
		
P2F#116	242596	248505
		
p1G#117	244717	251113
		
p2F#118	250946	251498
		
p1G#119	251229	257055
		
p2F#120	256944	259353
		
p1G#121	258695	261099
		
p2F#122	261342	261808
		
p1G#123	261858	266004
		
p2F#124	266008	267130
		
p1G#125	267567	271495
		
p2F#126	267928	272856
		
p1G#127	272718	277629
		
p2F#128	276796	278650
		
p1G#129	278801	279347
		
p2F#130	279989	281040
		
p1G#131	280735	284134
		
p2F#132	284768	288082
		
p1G#133	285729	288730
		
p2F#134	289688	292052
		
p1G#135	291408	298046
		
p2F#136	298023	301538
		
p1G#137	300321	303665
		
p2F#138	302065	306768
		
p1G#139	305982	313077
		
p2F#140	311888	318393
		
p1G#141	317662	319937
		
p2F#142	319876	320319
		
p1G#143	320225	322758
		
p2F#144	322562	325318
		
p1G#145	323147	326282
		
p2F#146	326527	327400
		
p1G#147	327027	328082
		
p2F#148	328293	328601
		
p1G#149	329087	330733
		
p2G#150	330370	334708
		
p1F#151	332414	335062
		
p2G#152	334853	340772
		
p1F#153	339997	340825
		
p2G#154	341294	346319
		
p1F#155	341433	346979
		
p2G#156	247304	348021
		
p1F#157	347525	350376
		
p2G#158	350795	355796
		
p1F#159	351280	357069
		
p2G#160	356383	361615
		
p1F#161	357598	364058
		
p2G#162	363556	369281
		
p1F#163	369227	370324
		
p2G#164	370726	378715
		
p1F#165	377742	382109
		
p2G#166	382265	382974
		
p1F#167	382109	384273
		
p2G#168	383972	386932
		
p1F#169	387037	387838
		
p2G#170	387048	395010
		
p1F#171	395436	396664
		
p2G#172	396901	397253
		
p1F#173	397343	398991
		
p2G#174	399088	401196
		
p1F#175	400896	402362
		
p2G#176	402671	403655
		
p1F#177	403583	404254
		
p2G#178	404646	407396
		
p1F#179	407465	408425
		
p2G#180	408487	413106
		
p1F#181	412768	415813
		
p2G#182	416512	418321
		
p1F#183	418450	419776
		
p2G#184	420083	422855
		
p1F#185	420903	426148
		
p2G#186	426778	428550
		
p1F#187	428370	428949
		
p2G#188	429098	435485
		
p1F#189	430838	435951
		
p2G#190	436067	437083
		
p1F#191	436814	437600
		
p2G#192	437845	443547
		
p1F#193	443646	444398
		
p2G#194	444623	447308
		
p1F#195	447224	447888
		
p2G#196	447308	453983
		
p1F#197	454002	456599
		
p2G#198	455004	456789
		
p1F#199	457094	457566
		
p2G#200	457672	458863
		
p1F#201	458984	459517
		
p2G#202	459398	464678
		
p1F#203	463153	468782
		
p2G#204	468079	470906
		
p1F#205	470712	471985
		
p2G#206	472683	472996
		
p1F#207	472954	475339
		
p2G#208	477716	484387
		
p1F#209	484876	487579
		
p2G#210	487460	487935
		
p1F#211	488919	495440
		
p2G#212	493440	498582
		
p1F#213	499089	499576
		
p2G#214	499580	501655
		
p1F#215	501166	502188
		
p2G#216	502158	502729
		
p1F#217	502788	503131
		
p2G#218	503291	507834
		
p1F#219	506788	509014
		
p2G#220	508772	511815
		
p1F#221	511489	511990
		
p2G#222	512005	519803
		
p1F#223	518992	520769
		
p2G#224	520668	523131
		
p1F#225	522826	524944
		
p2G#226	525119	527295
		
p1F#227	527588	530746
		
p2G#228	530653	536238
		
p1F#229	531704	536725
		
p2G#230	537038	538332
		
p1F#231	537713	539640
		
p2G#232	539072	542644
		
p1F#233	541440	542704
		
p2G#234	542898	546027
		
p1F#235	546459	548344
		
p2G#236	548735	549551
		
p1F#237	549148	550268
		
p2G#238	551333	555828
		
p1F#239	552443	557859
		
p2G#240	558021	559147
		
p1F#241	560332	561140
		
p2G#242	560624	565837
		
p1F#243	565612	566801
		
p2G#244	566981	568166
		
p1F#245	567817	568940
		
p2G#246	568977	573453
		
p1F#247	573905	575588
		
p2G#248	575942	576430
		
p1F#249	576234	577689
		
p2G#250	577780	578355
		
p1F#251	577961	582360
		
p2G#252	582814	584268
		
p1F#253	583920	587475
		
p2G#254	586268	599282
		
p1F#255	596387	602768
		
p2G#256	601226	604492
		
p1F#257	604451	604885
		
p2G#258	605498	608040
		
p1F#259	607012	607799

