TEXT_inf.

MAT:          LT
MAP:          A
TRM:
Ndl:          
Ntr:          
Nls:          01
REG:          F


SPEAKERS_inf.

INp2:         R. F., M, 18, Bagno a Ripoli (FI)


RECORDING_inf.

TYP:          DAT
LOC:          Firenze/abitazione
DAT:          04/02/01            
DUR:          2.07,209
CON:          buone


TRANSCRIPTION_inf.

DAT:          12/07/02
CMT:          
Nst:          44


panchina


albero


palazzo


<tongue-click> casa


<tongue-click> cavallo


base


statua


<tongue-click> cavaliere


spada


chioma


finestre


macchina


automobile


specchietto


prato


<tongue-click> cane


<tongue-click> guinzaglio


<tongue-click> corda


televisore


televisione


schermo


<tongue-click> {<NOISE> antenna}


<tongue-click> camino


tronco


fari


luci


bottoni


pulsante


ruote


uomo


{<NOISE> bocca}


<tongue-click> naso


occhi


maglia


pantalone


comignolo


foglie


<tongue-click> cappello


tetto


coda


zampe


zampa


scarpa


piede






