TEXT_inf.

MAT:        LT
MAP:        B
TRM:
Ndl:
Ntr:
Nls:        01
REG:        L


SPEAKERS_inf.

INp2:		P. C., F, 21, Augusta (SR)


RECORDING_inf.

TYP:		DAT
LOC:		Lecce
DAT:		23/03/01
DUR:		0.34,002
CON:		ottime


TRANSCRIPTION_inf.

DAT:		05/03/02
CMT:
Nst:		25


salvagente


pallini


bambino


occhi


naso


bocca


mano


dita


mare


uovo


tondi


ragazzo


onda


nuvola


barca


vela


spiaggia


tappo


costume


becco


bandiera


sasso


pietra


masso


ciambella
