TEXT_inf.

MAT:          LM
MAP:          B
TRM:
Ndl:          
Ntr:          
Nls:          02
REG:          E


SPEAKERS_inf.

INp2:         C. C., F, 19, Parma


RECORDING_inf.

TYP:          DAT
LOC:          Parma/abitazione
DAT:          29/01/01
DUR:          0.48,997
CON:          buone


TRANSCRIPTION_inf.

DAT:          08/01/03
CMT:          
Nst:          18


limoni


frigorifero


gatto


freccia


treno


*seddia


pipa


barca


forchetta


bar


mano


(<NOISE> cuore(


cuore rosso


rosso


giallo


cuore giallo


gelato


cono
