temporizzazioni LFp2B01G

#1:  00:00.296 - 00:02.344
#2:  00:03.000 - 00:05.208
#3:  00:05.816 - 00:07.888
#4:  00:08.565 - 00:11.181
#5:  00:11.683 - 00:13.843
#6:  00:13.992 - 00:16.936
#7:  00:17.698 - 00:20.042
#8:  00:20.595 - 00:23.723
#9:  00:24.391 - 00:28.391
#10:  00:28.983 - 00:32.431
#11:  00:33.119 - 00:37.223
#12:  00:38.003 - 00:42.594
#13:  00:43.433 - 00:48.746
#14:  00:49.499 - 00:54.527
#15:  00:55.497 - 01:01.055
#16:  01:01.887 - 01:06.829
#17:  01:07.403 - 01:11.585
#18:  01:12.355 - 01:18.482
#19:  01:19.338 - 01:33.111
#20:  01:33.813 - 01:49.823