TEXT_inf.

MAT:		LM
MAP:		B
TRM:
Ndl:		
Ntr:		
Nls:		01
REG:		G


SPEAKERS_inf.

INp2:		L. C., F, 21, Genova


RECORDING_inf.

TYP:		DAT
LOC:		Genova/UniversitÓ
DAT:		13/03/01
DUR:		0.21,204
CON:	


TRANSCRIPTION_inf.

DAT:		03/05/01		
CMT:		
Nst:		18


limoni


frigorifero


gatto


{<NOISE> freccia}


treno


sedia


pipa


barca


forchetta


bar


mano


cuore


cuore rosso


rosso


giallo


cuore giallo


gelato


cono
